proPower – proPower: Prospective power analyses for frequentist regression models
…
Mono- and di-syllabic nonce words in frame sentences.

Is the voicing effect the same or different in mono- vs disyllabic words?

Use “pilot” data to determine sample size.

Example 1: the data

library(tidyverse)

eng_s <- readRDS("data/eng_s.rds")
eng_s |> select(speaker, num_syl, word, voicing, v1_duration, speech_rate_c)

# A tibble: 720 × 6
   speaker num_syl word   voicing   v1_duration speech_rate_c
   <fct>   <fct>   <fct>  <fct>           <dbl>         <dbl>
 1 en02    di      teegus voiced          117.         -0.650
 2 en02    mono    teek   voiceless        95.0        -0.908
 3 en02    mono    teek   voiceless       106.         -0.900
 4 en02    di      tergus voiced          190.         -0.750
 5 en02    di      targus voiced          195.         -0.383
 6 en02    di      teepus voiceless       113.         -0.655
 7 en02    mono    terb   voiced          203.         -0.823
 8 en02    mono    tarp   voiceless       217.         -0.534
 9 en02    di      teegus voiced          120.         -0.571
10 en02    di      terpus voiceless       147.         -0.665
# ℹ 710 more rows
…
Priming paradigm:

Prime: prolong (unrelated), unkind (constituent), kindness (non-constituent).

Target: unkindness ([un-kind]-ness, not un-[kind-ness]).

Constituent vs non-constituent accuracy in L2 speakers.

Example 2: the data

shallow_s <- readRDS("data/shallow_s.rds")
shallow_s

# A tibble: 180 × 11
   ID    Group List  Target         ACC    RT logRT Critical_Filler Word_Nonword
   <chr> <chr> <chr> <chr>        <dbl> <dbl> <dbl> <chr>           <chr>       
 1 L2_36 L2    D     unholiness       1   878  6.78 Critical        Word        
 2 L2_36 L2    D     rehydratable     1  1263  7.14 Critical        Word        
 3 L2_36 L2    D     unclearness      1  1296  7.17 Critical        Word        
 4 L2_36 L2    D     resellable       1  1344  7.20 Critical        Word        
 5 L2_36 L2    D     unsharpness      0  1192  7.08 Critical        Word        
 6 L2_36 L2    D     reattachable     1   969  6.88 Critical        Word        
 7 L2_36 L2    D     uncleverness     0   835  6.73 Critical        Word        
 8 L2_36 L2    D     unwariness       1  1028  6.94 Critical        Word        
 9 L2_36 L2    D     reclosable       1  1028  6.94 Critical        Word        
10 L2_36 L2    D     reusable         1   814  6.70 Critical        Word        
# ℹ 170 more rows
# ℹ 2 more variables: Relation_type <chr>, Branching <chr>
…
